[
    {
        "id": 75,
        "code": "Hb",
        "name": "Hobart12",
        "bandwidth": 32e6,
        "longitude": [147, 26, 25.9],
        "latitude": [-42, 48, 12.9],
        "jc": 8420,
        "m": 8410,
        "jn": 8400,
        "so": 8410,
        "b": 8410
    },
    {
        "id": 77,
        "code": "Ke",
        "name": "Katherine",
        "bandwidth": 32e6,
        "longitude": [132, 10, 00.0],
        "latitude": [-14, 35, 00.0],
        "jc": 8420,
        "m": 8410,
        "jn": 8400,
        "so": 8410,
        "b": 8410
    },
    {
        "id": 78,
        "code": "Yg",
        "name": "Yarragadee",
        "bandwidth": 8e6,
        "longitude": [115, 20, 48.1],
        "latitude": [-29, 02, 47.0],
        "jc": 8420,
        "m": 8410,
        "jn": 8400,
        "so": 8410,
        "b": 8410
    },
    {
        "id": 76,
        "code": "Ho",
        "name": "Hobart26",
        "bandwidth": 8e6,
        "longitude": [147, 26, 27.3],
        "latitude": [-42, 48, 20.1],
        "jc": 8432,
        "m": 8416,
        "jn": 8400,
        "so": 8416,
        "b": 8416
    },
    {
        "id": 74,
        "code": "Cd",
        "name": "Ceduna",
        "bandwidth": 8e6,
        "longitude": [133, 48, 36],
        "latitude": [-31, 52, 4],
        "jc": 8432,
        "m": 8415,
        "jn": 8400,
        "so": 8415,
        "b": 8415
    },
    {
        "id": 75,
        "code": "Hbe",
        "name": "HobartEttus",
        "bandwidth": 1e6,
        "longitude": [147, 26, 25.9],
        "latitude": [-42, 48, 12.9],
        "jc": 8435.50,
        "m": 8419.5,
        "jn": 8403.5,
        "so": 8419.5,
        "b": 8419
    }
]