       0.125 0.0754691415  2.52367756  178277.666 3.39336204e+015 2.29366603e+015
       0.375 0.226407542  2.52366607  59343.4016   180299578   188346774
       0.625 0.377346298  2.52364308  35556.6123  193399.151  2509544.44
       0.875 0.528285644   2.5236086  25362.3192  45490.8249  562493.063
       1.125 0.679225817  2.52356262   19698.858  23672.2034  223848.058
       1.375 0.830167054  2.52350515  16094.8658  15047.2813  123302.443
       1.625  0.98110959  2.52343618  13599.8183  10775.2919   82017.347
       1.875  1.13205366  2.52335572  11770.1375  8334.22056   60879.773
       2.125  1.28299951  2.52326377  10370.9881   6789.2094  48288.1798
       2.375  1.43394736  2.52316033  9266.41264  5734.30158   39964.058
       2.625  1.58489746  2.52304539  8372.24716  4971.35037  34046.7521
       2.875  1.73585005  2.52291896  7633.60201  4394.43217  29616.5882
       3.125  1.88680535  2.52278105  7013.15227  3942.64319  26170.9208
       3.375  2.03776361  2.52263164  6484.63224  3578.81442  23412.3122
       3.625  2.18872506  2.52247074  6029.02193  3279.11029  21153.2753
       3.875  2.33968994  2.52229836  5632.20975  3027.59539  19269.4889
       4.125  2.49065849  2.52211449  5283.50509  2813.23208  17675.0647
       4.375  2.64163095  2.52191913  4974.66091  2628.13963  16308.6375
       4.625  2.79260755  2.52171229  4699.21331  2466.54188  15125.1238
       4.875  2.94358852  2.52149396  4452.02432  2324.10767  14090.6166
       5.125  3.09457412  2.52126415  4228.95851  2197.52395  13179.1016
       5.375  3.24556457  2.52102286  4026.64983  2084.21161  12370.2748
       5.625  3.39656012  2.52077009  3842.33062  1982.13152  11648.0513
       5.875  3.54756099  2.52050584  3673.70433  1889.64903  10999.5208
       6.125  3.69856744  2.52023011  3518.84936  1805.43754  10414.2003
       6.375   3.8495797   2.5199429  3376.14552   1728.4084  9883.48915
       6.625  4.00059801  2.51964423   3244.2172  1657.65933  9400.26534
       6.875   4.1516226  2.51933407  3121.88885  1592.43568  8958.58149
       7.125  4.30265372  2.51901245  3008.14994   1532.1011  8553.43298
       7.375  4.45369161  2.51867936  2902.12693  1476.11496  8180.57904
       7.625  4.60473651   2.5183348  2803.06087  1424.01477  7836.40299
       7.875  4.75578865  2.51797877  2710.28918  1375.40241  7517.80216
       8.125  4.90684828  2.51761128  2623.23081  1329.93315  7222.10018
       8.375  5.05791563  2.51723233   2541.3741  1287.30692  6946.97669
       8.625  5.20899096  2.51684192  2464.26672   1247.2612  6690.41044
       8.875  5.36007449  2.51644005  2391.50731  1209.56525  6450.63292
       9.125  5.51116647  2.51602672  2322.73847   1174.0154  6226.09035
       9.375  5.66226715  2.51560195  2257.64094  1140.43117   6015.4123
       9.625  5.81337677  2.51516572  2195.92864  1108.65198  5817.38564
       9.875  5.96449556  2.51471804  2137.34443   1078.5345  5630.93278
      10.125  6.11562377  2.51425891  2081.65661  1049.95035  5455.09339
      10.375  6.26676164  2.51378834  2028.65576  1022.78416  5289.00904
      10.625  6.41790942  2.51330633  1978.15222   996.93199  5131.91012
      10.875  6.56906735  2.51281288  1929.97374  972.299913  4983.10476
      11.125  6.72023567    2.512308  1883.96355  948.802823  4841.96934
      11.375  6.87141464  2.51179168  1839.97869  926.363423  4707.94034
      11.625  7.02260449  2.51126393  1797.88847   904.91134  4580.50734
      11.875  7.17380546  2.51072475  1757.57322  884.382359  4459.20698
      12.125  7.32501782  2.51017415  1718.92314  864.717762  4343.61767
      12.375  7.47624179  2.50961212  1681.83729  845.863742  4233.35509
      12.625  7.62747763  2.50903868  1646.22273  827.770903  4128.06813
      12.875  7.77872559  2.50845382  1611.99376  810.393809  4027.43546
      13.125  7.92998591  2.50785755  1579.07118  793.690595  3931.16244
      13.375  8.08125883  2.50724987  1547.38172   777.62262  3838.97845
      13.625  8.23254462  2.50663078   1516.8575  762.154158   3750.6345
      13.875  8.38384351  2.50600029  1487.43552  747.252132  3665.90112
      14.125  8.53515576   2.5053584  1459.05725  732.885867  3584.56655
      14.375  8.68648162  2.50470512  1431.66821  719.026874  3506.43501
      14.625  8.83782133  2.50404044  1405.21767  705.648663  3431.32529
      14.875  8.98917515  2.50336437  1379.65831  692.726563  3359.06941
      15.125  9.14054332  2.50267692  1354.94591  680.237574  3289.51144
      15.375  9.29192611  2.50197809  1331.03916  668.160222  3222.50645
      15.625  9.44332376  2.50126788  1307.89937  656.474437  3157.91958
      15.875  9.59473652  2.50054629  1285.49031  645.161437  3095.62519
      16.125  9.74616466  2.49981334  1263.77797  634.203631  3035.50604
      16.375  9.89760841  2.49906902  1242.73043  623.584518  2977.45269
      16.625   10.049068  2.49831333  1222.31771   613.28861   2921.3628
      16.875  10.2005438  2.49754629  1202.51156  603.301353   2867.1406
      17.125   10.352036   2.4967679  1183.28543  593.609055  2814.69636
      17.375  10.5035448  2.49597815  1164.61426  584.198826  2763.94595
      17.625  10.6550705  2.49517706  1146.47444  575.058521  2714.81037
      17.875  10.8066133  2.49436463  1128.84365   566.17668  2667.21544
      18.125  10.9581736  2.49354086  1111.70083  557.542489  2621.09135
      18.375  11.1097515  2.49270577  1095.02605  549.145729  2576.37241
      18.625  11.2613474  2.49185934  1078.80047  540.976737  2532.99675
      18.875  11.4129615  2.49100159  1063.00621  533.026369  2490.90601
      19.125   11.564594  2.49013252  1047.62637  525.285966  2450.04513
      19.375  11.7162453  2.48925214  1032.64489  517.747321  2410.36213
      19.625  11.8679155  2.48836044  1018.04654   510.40265  2371.80785
      19.875   12.019605  2.48745745  1003.81685  503.244565  2334.33583
      20.125   12.171314  2.48654315  989.942081  496.266051  2297.90206
      20.375  12.3230427  2.48561756  976.409162  489.460439  2262.46487
      20.625  12.4747915  2.48468069  963.205653  482.821389  2227.98478
      20.875  12.6265606  2.48373252  950.319713  476.342866  2194.42431
      21.125  12.7783502  2.48277308  937.740061  470.019124  2161.74792
      21.375  12.9301607  2.48180236  925.455943  463.844689  2129.92184
      21.625  13.0819923  2.48082038  913.457103  457.814343  2098.91398
      21.875  13.2338453  2.47982713  901.733754  451.923108  2068.69382
      22.125  13.3857199  2.47882263  890.276551  446.166234  2039.23233
      22.375  13.5376164  2.47780687  879.076567  440.539183  2010.50188
      22.625  13.6895351  2.47677986  868.125269  435.037621  1982.47613
      22.875  13.8414763  2.47574162  857.414497  429.657406  1955.12999
      23.125  13.9934401  2.47469213  846.936446  424.394575  1928.43952
      23.375   14.145427  2.47363142  836.683641  419.245335   1902.3819
      23.625  14.2974372  2.47255948  826.648927  414.206058  1876.93533
      23.875  14.4494709  2.47147633  816.825447  409.273267  1852.07898
      24.125  14.6015285  2.47038196  807.206629  404.443629  1827.79297
      24.375  14.7536101  2.46927638  797.786169  399.713952  1804.05827
      24.625  14.9057161  2.46815961  788.558021  395.081172  1780.85669
      24.875  15.0578468  2.46703164  779.516381  390.542349  1758.17082
      25.125  15.2100025  2.46589248  770.655676  386.094663  1735.98399
      25.375  15.3621834  2.46474214  761.970554  381.735404  1714.28022
      25.625  15.5143897  2.46358062  753.455869  377.461969  1693.04423
      25.875  15.6666219  2.46240793  745.106677  373.271855  1672.26135
      26.125  15.8188801  2.46122408  736.918222  369.162658   1651.9175
      26.375  15.9711647  2.46002907  728.885927  365.132064  1631.99918
      26.625   16.123476  2.45882292  721.005389  361.177846  1612.49345
      26.875  16.2758142  2.45760561  713.272368  357.297862  1593.38786
      27.125  16.4281795  2.45637718  705.682779  353.490047  1574.67045
      27.375  16.5805725  2.45513761   698.23269  349.752415  1556.32975
      27.625  16.7329932  2.45388691  690.918307  346.083049  1538.35471
      27.875  16.8854419   2.4526251  683.735974  342.480104  1520.73471
      28.125  17.0379191  2.45135218  676.682166  338.941799  1503.45953
      28.375   17.190425  2.45006816  669.753481  335.466417  1486.51935
      28.625  17.3429598  2.44877304  662.946636  332.052301  1469.90469
      28.875  17.4955239  2.44746683  656.258461  328.697851  1453.60645
      29.125  17.6481175  2.44614954  649.685896  325.401524  1437.61583
      29.375   17.800741  2.44482117  643.225985  322.161828  1421.92437
      29.625  17.9533947  2.44348174  636.875872  318.977322  1406.52392
      29.875  18.1060788  2.44213124  630.632795  315.846614  1391.40659
      30.125  18.2587937   2.4407697  624.494087  312.768358  1376.56482
      30.375  18.4115397   2.4393971  618.457164  309.741254  1361.99125
      30.625   18.564317  2.43801347  612.519531  306.764041  1347.67884
      30.875   18.717126  2.43661881  606.678772  303.835503  1333.62075
      31.125   18.869967  2.43521313  600.932547   300.95446  1319.81038
      31.375  19.0228402  2.43379643  595.278593  298.119773  1306.24137
      31.625  19.1757461  2.43236872  589.714718  295.330336  1292.90757
      31.875  19.3286848  2.43093002  584.238798   292.58508  1279.80301
      32.125  19.4816568  2.42948032  578.848775  289.882968  1266.92196
      32.375  19.6346623  2.42801964  573.542657  287.222997  1254.25884
      32.625  19.7877017  2.42654798  568.318509  284.604192  1241.80827
      32.875  19.9407752  2.42506536  563.174459  282.025611  1229.56504
      33.125  20.0938831  2.42357178  558.108688  279.486339  1217.52411
      33.375  20.2470259  2.42206724  553.119434  276.985487  1205.68061
      33.625  20.4002038  2.42055176  548.204986  274.522195  1194.02979
      33.875  20.5534171  2.41902535  543.363684  272.095627  1182.56708
      34.125  20.7066662  2.41748801  538.593918  269.704973  1171.28805
      34.375  20.8599513  2.41593975  533.894122  267.349444   1160.1884
      34.625  21.0132729  2.41438059  529.262777  265.028278  1149.26395
      34.875  21.1666312  2.41281052  524.698407   262.74073  1138.51067
      35.125  21.3200265  2.41122956  520.199579  260.486081  1127.92463
      35.375  21.4734593  2.40963771    515.7649  258.263629  1117.50204
      35.625  21.6269297    2.408035  511.393016  256.072692   1107.2392
      35.875  21.7804382  2.40642141   507.08261   253.91261  1097.13254
      36.125  21.9339851  2.40479697  502.832402  251.782738  1087.17859
      36.375  22.0875707  2.40316168  498.641148   249.68245  1077.37396
      36.625  22.2411954  2.40151555  494.507638  247.611138  1067.71538
      36.875  22.3948595  2.39985859  490.430692   245.56821  1058.19967
      37.125  22.5485633  2.39819081  486.409166  243.553089  1048.82374
      37.375  22.7023072  2.39651222  482.441943  241.565214  1039.58459
      37.625  22.8560915  2.39482282  478.527939  239.604039   1030.4793
      37.875  23.0099166  2.39312264  474.666095  237.669034  1021.50503
      38.125  23.1637828  2.39141167  470.855382  235.759681  1012.65902
      38.375  23.3176905  2.38968992  467.094799  233.875476  1003.93859
      38.625    23.47164  2.38795741  463.383368  232.015928  995.341129
      38.875  23.6256316  2.38621414  459.720137  230.180559  986.864103
      39.125  23.7796658  2.38446013   456.10418  228.368903   978.50504
      39.375  23.9337428  2.38269538  452.534593  226.580506  970.261537
      39.625  24.0878631  2.38091991  449.010496  224.814926  962.131257
      39.875   24.242027  2.37913372  445.531029  223.071731  954.111921
      40.125  24.3962348  2.37733682  442.095355    221.3505  946.201314
      40.375   24.550487  2.37552923  438.702658  219.650824  938.397277
      40.625  24.7047838  2.37371095  435.352141  217.972302  930.697706
      40.875  24.8591257  2.37188199  432.043027  216.314544  923.100554
      41.125   25.013513  2.37004237  428.774559  214.677169  915.603825
      41.375  25.1679461  2.36819209  425.545996  213.059806  908.205575
      41.625  25.3224254  2.36633116  422.356617  211.462092  900.903907
      41.875  25.4769512   2.3644596  419.205716  209.883673  893.696975
      42.125  25.6315239  2.36257742  416.092606  208.324203  886.582977
      42.375  25.7861439  2.36068462  413.016615  206.783347  879.560157
      42.625  25.9408115  2.35878121  409.977087  205.260773  872.626802
      42.875  26.0955272  2.35686722  406.973382   203.75616  865.781242
      43.125  26.2502914  2.35494264  404.004873  202.269194  859.021846
      43.375  26.4051044  2.35300748  401.070949  200.799569  852.347024
      43.625  26.5599666  2.35106177  398.171013  199.346984  845.755225
      43.875  26.7148783   2.3491055  395.304481  197.911145  839.244935
      44.125  26.8698401   2.3471387  392.470782  196.491768  832.814674
      44.375  27.0248523  2.34516137  389.669359  195.088571  826.463001
      44.625  27.1799153  2.34317352  386.899667  193.701282  820.188506
      44.875  27.3350294  2.34117516  384.161172  192.329632  813.989813
      45.125  27.4901952  2.33916631  381.453354   190.97336  807.865578
      45.375  27.6454129  2.33714697  378.775703   189.63221   801.81449
      45.625   27.800683  2.33511716  376.127719  188.305932  795.835265
      45.875  27.9560059  2.33307689  373.508916  186.994282  789.926652
      46.125  28.1113821  2.33102617  370.918817  185.697019  784.087425
      46.375  28.2668119  2.32896501  368.356954   184.41391  778.316389
      46.625  28.4222957  2.32689343  365.822871  183.144725  772.612375
      46.875   28.577834  2.32481143   363.31612   181.88924  766.974239
      47.125  28.7334272  2.32271902  360.836265  180.647235  761.400864
      47.375  28.8890757  2.32061622  358.382877  179.418496  755.891157
      47.625  29.0447799  2.31850305  355.955536  178.202812   750.44405
      47.875  29.2005402   2.3163795  353.553832  176.999978  745.058498
      48.125  29.3563572   2.3142456  351.177364   175.80979  739.733478
      48.375  29.5122312  2.31210135  348.825736  174.632053  734.467992
      48.625  29.6681626  2.30994678  346.498564  173.466572  729.261059
      48.875   29.824152  2.30778188  344.195471  172.313158  724.111725
      49.125  29.9801996  2.30560667  341.916085  171.171625  719.019051
      49.375  30.1363061  2.30342117  339.660044  170.041791   713.98212
      49.625  30.2924717  2.30122539  337.426994  168.923479  709.000037
      49.875  30.4486971  2.29901933  335.216585  167.816514  704.071922
      50.125  30.6049825  2.29680302  333.028478  166.720724  699.196915
      50.375  30.7613286  2.29457646  330.862337  165.635942  694.374174
      50.625  30.9177357  2.29233967  328.717835  164.562003  689.602876
      50.875  31.0742042  2.29009265   326.59465  163.498747  684.882211
      51.125  31.2307347  2.28783543  324.492467  162.446014   680.21139
      51.375  31.3873277  2.28556802  322.410978  161.403651  675.589638
      51.625  31.5439835  2.28329042   320.34988  160.371506  671.016195
      51.875  31.7007027  2.28100265  318.308875  159.349428  666.490319
      52.125  31.8574857  2.27870472  316.287672  158.337273   662.01128
      52.375   32.014333  2.27639666  314.285985  157.334897  657.578365
      52.625  32.1712451  2.27407846  312.303535  156.342159  653.190874
      52.875  32.3282225  2.27175015  310.340045  155.358922  648.848122
      53.125  32.4852657  2.26941173  308.395246  154.385049  644.549435
      53.375  32.6423751  2.26706322  306.468873  153.420409  640.294155
      53.625  32.7995512  2.26470463  304.560666   152.46487  636.081636
      53.875  32.9567945  2.26233599   302.67037  151.518306  631.911244
      54.125  33.1141056  2.25995729  300.797735   150.58059  627.782359
      54.375   33.271485  2.25756855  298.942516  149.651599   623.69437
      54.625   33.428933  2.25516979  297.104469  148.731212   619.64668
      54.875  33.5864503  2.25276103   295.28336  147.819311  615.638703
      55.125  33.7440374  2.25034227  293.478955  146.915779  611.669865
      55.375  33.9016947  2.24791352  291.691026  146.020501  607.739601
      55.625  34.0594229  2.24547481  289.919349  145.133365  603.847357
      55.875  34.2172223  2.24302615  288.163704  144.254261  599.992591
      56.125  34.3750936  2.24056754  286.423873   143.38308   596.17477
      56.375  34.5330372  2.23809902  284.699645  142.519715   592.39337
      56.625  34.6910538  2.23562058  282.990812  141.664062  588.647879
      56.875  34.8491437  2.23313224  281.297167  140.816019  584.937793
      57.125  35.0073077  2.23063402   279.61851  139.975484  581.262617
      57.375  35.1655462  2.22812593  277.954642  139.142357  577.621865
      57.625  35.3238597  2.22560799   276.30537  138.316542  574.015061
      57.875  35.4822488  2.22308021  274.670502  137.497943  570.441737
      58.125  35.6407141  2.22054261  273.049849  136.686466  566.901433
      58.375  35.7992561   2.2179952  271.443228  135.882017  563.393698
      58.625  35.9578754  2.21543799  269.850457  135.084506  559.918088
      58.875  36.1165726    2.212871  268.271358  134.293843  556.474168
      59.125  36.2753482  2.21029425  266.705755  133.509942   553.06151
      59.375  36.4342027  2.20770774  265.153476  132.732714  549.679695
      59.625  36.5931369   2.2051115  263.614351  131.962076  546.328309
      59.875  36.7521512  2.20250554  262.088213  131.197943  543.006947
      60.125  36.9112462  2.19988988  260.574899  130.440234   539.71521
      60.375  37.0704226  2.19726452  259.074248  129.688868  536.452707
      60.625  37.2296808  2.19462949  257.586101  128.943765  533.219052
      60.875  37.3890216  2.19198481  256.110301  128.204846  530.013869
      61.125  37.5484455  2.18933047  254.646697  127.472037  526.836784
      61.375  37.7079531  2.18666651  253.195135  126.745259  523.687433
      61.625  37.8675451  2.18399294   251.75547   126.02444  520.565457
      61.875   38.027222  2.18130977  250.327553  125.309506  517.470502
      62.125  38.1869845  2.17861702  248.911242  124.600385  514.402221
      62.375  38.3468332   2.1759147  247.506395  123.897006  511.360273
      62.625  38.5067686  2.17320284  246.112873    123.1993  508.344322
      62.875  38.6667916  2.17048144  244.730539  122.507197  505.354039
      63.125  38.8269026  2.16775052  243.359259  121.820631  502.389098
      63.375  38.9871024   2.1650101  241.998899  121.139534   499.44918
      63.625  39.1473915  2.16226019   240.64933  120.463842  496.533973
      63.875  39.3077707  2.15950082  239.310423   119.79349  493.643165
      64.125  39.4682405  2.15673199  237.982051  119.128415  490.776455
      64.375  39.6288017  2.15395373  236.664089  118.468554  487.933543
      64.625   39.789455  2.15116604  235.356416  117.813845  485.114135
      64.875  39.9502009  2.14836896  234.058911   117.16423  482.317941
      65.125  40.1110401  2.14556248  232.771454  116.519647  479.544678
      65.375  40.2719734  2.14274664  231.493929  115.880038  476.794065
      65.625  40.4330014  2.13992144  230.226221  115.245345  474.065827
      65.875  40.5941248   2.1370869  228.968215  114.615513  471.359691
      66.125  40.7553444  2.13424305  227.719801  113.990483  468.675393
      66.375  40.9166607  2.13138989  226.480868  113.370203  466.012667
      66.625  41.0780746  2.12852744  225.251307  112.754616  463.371257
      66.875  41.2395867  2.12565573  224.031013   112.14367  460.750907
      67.125  41.4011977  2.12277476  222.819879  111.537312  458.151366
      67.375  41.5629085  2.11988456  221.617803   110.93549  455.572389
      67.625  41.7247196  2.11698515  220.424681  110.338152  453.013732
      67.875  41.8866318  2.11407653  219.240414  109.745249  450.475156
      68.125  42.0486459  2.11115873  218.064902  109.156731  447.956425
      68.375  42.2107627  2.10823177  216.898048  108.572549  445.457308
      68.625  42.3729828  2.10529565  215.739755  107.992654  442.977576
      68.875   42.535307  2.10235041  214.589928  107.416999  440.517004
      69.125  42.6977361  2.09939606  213.448474  106.845537  438.075371
      69.375  42.8602709  2.09643261  212.315302  106.278222  435.652459
      69.625   43.022912  2.09346009  211.190319  105.715009  433.248052
      69.875  43.1856604  2.09047851  210.073437  105.155853  430.861939
      70.125  43.3485168  2.08748789  208.964567  104.600709  428.493912
      70.375   43.511482  2.08448824  207.863623  104.049534  426.143764
      70.625  43.6745568   2.0814796  206.770518  103.502285  423.811294
      70.875   43.837742  2.07846197  205.685168  102.958919  421.496302
      71.125  44.0010384  2.07543537   204.60749  102.419396  419.198592
      71.375  44.1644468  2.07239982  203.537402  101.883673   416.91797
      71.625   44.327968  2.06935534  202.474822   101.35171  414.654245
      71.875  44.4916029  2.06630196  201.419671  100.823467  412.407229
      72.125  44.6553524  2.06323967   200.37187  100.298905  410.176737
      72.375  44.8192172  2.06016852  199.331341  99.7779852  407.962586
      72.625  44.9831982  2.05708851  198.298008  99.2606683  405.764596
      72.875  45.1472963  2.05399967  197.271795  98.7469168   403.58259
      73.125  45.3115124    2.050902  196.252627  98.2366934  401.416393
      73.375  45.4758472  2.04779554  195.240431  97.7299614  399.265832
      73.625  45.6403017   2.0446803  194.235135  97.2266844  397.130738
      73.875  45.8048769  2.04155631  193.236666  96.7268265  395.010942
      74.125  45.9695734  2.03842357  192.244955  96.2303524   392.90628
      74.375  46.1343924  2.03528211  191.259932  95.7372272  390.816589
      74.625  46.2993346  2.03213195  190.281528  95.2474165  388.741708
      74.875  46.4644011  2.02897311  189.309675  94.7608865  386.681479
      75.125  46.6295927   2.0258056  188.344306  94.2776035  384.635746
      75.375  46.7949103  2.02262946  187.385356  93.7975346  382.604354
      75.625  46.9603549  2.01944469   186.43276  93.3206471  380.587152
      75.875  47.1259274  2.01625132  185.486452  92.8469088   378.58399
      76.125  47.2916289  2.01304937  184.546371  92.3762881  376.594719
      76.375  47.4574602  2.00983885  183.612452  91.9087535  374.619196
      76.625  47.6234223  2.00661979  182.684635  91.4442742  372.657275
      76.875  47.7895163  2.00339221  181.762859  90.9828196  370.708814
      77.125   47.955743  2.00015613  180.847063  90.5243596  368.773675
      77.375  48.1221036  1.99691157  179.937188  90.0688645  366.851719
      77.625  48.2885989  1.99365855  179.033176  89.6163049  364.942809
      77.875  48.4552301  1.99039709  178.134968  89.1666518  363.046813
      78.125  48.6219981   1.9871272  177.242507  88.7198766  361.163596
      78.375  48.7889039  1.98384892  176.355738  88.2759512  359.293028
      78.625  48.9559487  1.98056227  175.474604  87.8348476  357.434981
      78.875  49.1231334  1.97726725  174.599051  87.3965383  355.589326
      79.125  49.2904591   1.9739639  173.729024  86.9609961  353.755939
      79.375  49.4579269  1.97065224   172.86447  86.5281943  351.934695
      79.625  49.6255379  1.96733228  172.005335  86.0981062  350.125472
      79.875  49.7932931  1.96400405  171.151568  85.6707059   348.32815
      80.125  49.9611936  1.96066757  170.303118  85.2459673  346.542608
      80.375  50.1292406  1.95732286  169.459932  84.8238651  344.768729
      80.625  50.2974351  1.95396994  168.621961   84.404374  343.006398
      80.875  50.4657783  1.95060883  167.789156  83.9874692  341.255499
      81.125  50.6342713  1.94723957  166.961466  83.5731261   339.51592
      81.375  50.8029153  1.94386216  166.138844  83.1613204  337.787548
      81.625  50.9717113  1.94047663  165.321242  82.7520282  336.070274
      81.875  51.1406607    1.937083  164.508613  82.3452257  334.363989
      82.125  51.3097644  1.93368129  163.700909  81.9408897  332.668584
      82.375  51.4790239  1.93027154  162.898085   81.538997  330.983955
      82.625  51.6484401  1.92685375  162.100096  81.1395247  329.309996
      82.875  51.8180144  1.92342795  161.306895  80.7424505  327.646603
      83.125  51.9877479  1.91999416  160.518439  80.3477518  325.993675
      83.375  52.1576419  1.91655241  159.734684  79.9554069  324.351111
      83.625  52.3276976  1.91310272  158.955587  79.5653939  322.718811
      83.875  52.4979163  1.90964511  158.181104  79.1776914  321.096676
      84.125  52.6682993  1.90617961  157.411193  78.7922782   319.48461
      84.375  52.8388477  1.90270623  156.645812  78.4091332  317.882516
      84.625  53.0095629  1.89922501  155.884921  78.0282358    316.2903
      84.875  53.1804462  1.89573596  155.128477  77.6495656  314.707869
      85.125  53.3514989   1.8922391  154.376441  77.2731022  313.135129
      85.375  53.5227224  1.88873447  153.628773  76.8988256  311.571989
      85.625  53.6941178  1.88522208  152.885433  76.5267162  310.018359
      85.875  53.8656867  1.88170195  152.146382  76.1567544   308.47415
      86.125  54.0374303  1.87817412  151.411583   75.788921  306.939275
      86.375    54.20935  1.87463861  150.680995  75.4231967  305.413645
      86.625  54.3814473  1.87109543  149.954583  75.0595629  303.897175
      86.875  54.5537234  1.86754462  149.232309  74.6980008  302.389781
      87.125  54.7261799  1.86398619  148.514136   74.338492  300.891377
      87.375  54.8988181  1.86042018  147.800028  73.9810185  299.401882
      87.625  55.0716394   1.8568466  147.089949   73.625562  297.921213
      87.875  55.2446454  1.85326548  146.383863  73.2721049   296.44929
      88.125  55.4178375  1.84967685  145.681735  72.9206296  294.986033
      88.375  55.5912171  1.84608073   144.98353  72.5711187  293.531362
      88.625  55.7647858  1.84247714  144.289215  72.2235551    292.0852
      88.875   55.938545  1.83886611  143.598755  71.8779216  290.647469
      89.125  56.1124963  1.83524767  142.912117  71.5342016  289.218093
      89.375  56.2866412  1.83162184  142.229268  71.1923784  287.796997
      89.625  56.4609812  1.82798864  141.550174  70.8524356  286.384106
      89.875   56.635518   1.8243481  140.874803   70.514357  284.979347
      90.125  56.8102531  1.82070025  140.203124  70.1781265  283.582647
      90.375  56.9851881  1.81704511  139.535104  69.8437282  282.193934
      90.625  57.1603246  1.81338271  138.870713  69.5111465  280.813137
      90.875  57.3356642  1.80971306  138.209919  69.1803658  279.440185
      91.125  57.5112085  1.80603621  137.552691  68.8513708   278.07501
      91.375  57.6869593  1.80235218     136.899  68.5241463  276.717542
      91.625  57.8629182  1.79866098  136.248815  68.1986772  275.367714
      91.875  58.0390869  1.79496266  135.602107  67.8749488  274.025458
      92.125  58.2154671  1.79125722  134.958846  67.5529464  272.690708
      92.375  58.3920605  1.78754471  134.319004  67.2326554    271.3634
      92.625  58.5688689  1.78382515  133.682551  66.9140614  270.043467
      92.875  58.7458939  1.78009856   133.04946  66.5971503  268.730845
      93.125  58.9231375  1.77636497  132.419702  66.2819081  267.425472
      93.375  59.1006013   1.7726244  131.793249  65.9683207  266.127285
      93.625  59.2782873   1.7688769  131.170074  65.6563746  264.836221
      93.875  59.4561971  1.76512248   130.55015   65.346056   263.55222
      94.125  59.6343327  1.76136116  129.933451  65.0373515  262.275221
      94.375   59.812696  1.75759299  129.319948  64.7302478  261.005163
      94.625  59.9912887  1.75381798  128.709617  64.4247318  259.741989
      94.875  60.1701129  1.75003616  128.102431  64.1207904  258.485638
      95.125  60.3491705  1.74624757  127.498365  63.8184108  257.236053
      95.375  60.5284633  1.74245223  126.897392  63.5175801  255.993177
      95.625  60.7079933  1.73865016  126.299488  63.2182858  254.756954
      95.875  60.8877626   1.7348414  125.704628  62.9205155  253.527326
      96.125  61.0677731  1.73102597  125.112788  62.6242567  252.304239
      96.375  61.2480269  1.72720391  124.523942  62.3294973  251.087638
      96.625  61.4285259  1.72337524  123.938067  62.0362252  249.877469
      96.875  61.6092723     1.71954  123.355139  61.7444284  248.673678
      97.125  61.7902682   1.7156982  122.775134  61.4540951  247.476211
      97.375  61.9715156  1.71184988  122.198028  61.1652136  246.285018
      97.625  62.1530166  1.70799508    121.6238  60.8777723  245.100044
      97.875  62.3347735  1.70413381  121.052425  60.5917597   243.92124
      98.125  62.5167885  1.70026611  120.483882  60.3071646  242.748554
      98.375  62.6990636  1.69639201  119.918147  60.0239756  241.581937
      98.625  62.8816011  1.69251154  119.355199  59.7421818  240.421338
      98.875  63.0644033  1.68862472  118.795016   59.461772  239.266708
      99.125  63.2474724   1.6847316  118.237576  59.1827355  238.117999
      99.375  63.4308107   1.6808322  117.682857  58.9050614  236.975163
      99.625  63.6144205  1.67692654  117.130838  58.6287391  235.838151
      99.875  63.7983043  1.67301467  116.581498  58.3537581  234.706918
     100.125  63.9824642  1.66909661  116.034817  58.0801079  233.581416
     100.375  64.1669028  1.66517239  115.490774  57.8077782  232.461598
     100.625  64.3516224  1.66124205  114.949347  57.5367588  231.347421
     100.875  64.5366255  1.65730562  114.410518  57.2670396  230.238837
     101.125  64.7219145  1.65336312  113.874266  56.9986106  229.135804
     101.375  64.9074919  1.64941459  113.340571  56.7314618  228.038276
     101.625  65.0933603  1.64546007  112.809413  56.4655835   226.94621
     101.875  65.2795222  1.64149958  112.280775   56.200966  225.859562
     102.125  65.4659802  1.63753315  111.754635  55.9375996   224.77829
     102.375  65.6527368  1.63356083  111.230975  55.6754748  223.702352
     102.625  65.8397947  1.62958264  110.709777  55.4145823  222.631705
     102.875  66.0271566  1.62559861  110.191022  55.1549126  221.566308
     103.125  66.2148252  1.62160878   109.67469  54.8964567   220.50612
     103.375  66.4028031  1.61761318  109.160765  54.6392053  219.451101
     103.625  66.5910931  1.61361184  108.649229  54.3831495   218.40121
     103.875   66.779698  1.60960481  108.140062  54.1282802  217.356407
     104.125  66.9686206  1.60559211  107.633248  53.8745887  216.316653
     104.375  67.1578638  1.60157377  107.128768  53.6220661  215.281909
     104.625  67.3474304  1.59754983  106.626607  53.3707038  214.252137
     104.875  67.5373232  1.59352033  106.126746  53.1204932  213.227298
     105.125  67.7275454   1.5894853  105.629168  52.8714258  212.207355
     105.375  67.9180997  1.58544477  105.133858  52.6234933   211.19227
     105.625  68.1089892  1.58139879  104.640797  52.3766871  210.182006
     105.875   68.300217  1.57734738   104.14997  52.1309992  209.176527
     106.125  68.4917861  1.57329058  103.661361  51.8864213  208.175797
     106.375  68.6836997  1.56922842  103.174952  51.6429454  207.179779
     106.625  68.8759608  1.56516095  102.690729  51.4005634  206.188438
     106.875  69.0685726   1.5610882  102.208676  51.1592675   205.20174
     107.125  69.2615383   1.5570102  101.728776  50.9190497  204.219648
     107.375  69.4548613  1.55292699  101.251014  50.6799024   203.24213
     107.625  69.6485447  1.54883862  100.775375  50.4418179   202.26915
     107.875  69.8425919   1.5447451  100.301844  50.2047885  201.300676
     108.125  70.0370062  1.54064649  99.8304051  49.9688067  200.336673
     108.375  70.2317911  1.53654282  99.3610443   49.733865   199.37711
     108.625    70.42695  1.53243413  98.8937464  49.4999561  198.421952
     108.875  70.6224863  1.52832046   98.428497  49.2670727  197.471168
     109.125  70.8184036  1.52420184  97.9652816  49.0352075  196.524726
     109.375  71.0147054  1.52007831  97.5040859  48.8043534  195.582595
     109.625  71.2113953  1.51594992  97.0448956  48.5745033  194.644742
     109.875  71.4084771  1.51181669  96.5876968  48.3456501  193.711136
     110.125  71.6059542  1.50767868  96.1324756  48.1177869  192.781748
     110.375  71.8038305  1.50353591  95.6792183  47.8909069  191.856547
     110.625  72.0021098  1.49938844  95.2279113  47.6650032  190.935502
     110.875  72.2007958  1.49523629  94.7785411  47.4400691  190.018584
     111.125  72.3998924  1.49107952  94.3310943  47.2160979  189.105763
     111.375  72.5994036  1.48691816  93.8855579   46.993083   188.19701
     111.625  72.7993332  1.48275224  93.4419186  46.7710178  187.292297
     111.875  72.9996852  1.47858182  93.0001637   46.549896  186.391594
     112.125  73.2004638  1.47440694  92.5602803   46.329711  185.494874
     112.375  73.4016729  1.47022763  92.1222557  46.1104566  184.602108
     112.625  73.6033168  1.46604394  91.6860774  45.8921264   183.71327
     112.875  73.8053996  1.46185591  91.2517329  45.6747143   182.82833
     113.125  74.0079256  1.45766358  90.8192101  45.4582141  181.947263
     113.375   74.210899    1.453467  90.3884967  45.2426197  181.070041
     113.625  74.4143242   1.4492662  89.9595807  45.0279251  180.196638
     113.875  74.6182056  1.44506125  89.5324501  44.8141243  179.327027
     114.125  74.8225477  1.44085216  89.1070933  44.6012114  178.461183
     114.375  75.0273549    1.436639  88.6834984  44.3891805   177.59908
     114.625  75.2326318  1.43242181   88.261654   44.178026  176.740692
     114.875   75.438383  1.42820062  87.8415487   43.967742  175.885994
     115.125  75.6446131   1.4239755  87.4231711  43.7583229  175.034961
     115.375   75.851327  1.41974647    87.00651  43.5497631  174.187568
     115.625  76.0585293  1.41551359  86.5915543  43.3420571  173.343791
     115.875   76.266225  1.41127691  86.1782931  43.1351993  172.503607
     116.125  76.4744189  1.40703646  85.7667155  42.9291843   171.66699
     116.375   76.683116   1.4027923  85.3568108  42.7240068  170.833917
     116.625  76.8923213  1.39854448  84.9485683  42.5196613  170.004365
     116.875  77.1020399  1.39429304  84.5419776  42.3161428   169.17831
     117.125   77.312277  1.39003803  84.1370283  42.1134459  168.355731
     117.375  77.5230377   1.3857795  83.7337099  41.9115655  167.536603
     117.625  77.7343273   1.3815175  83.3320125  41.7104965  166.720905
     117.875  77.9461512  1.37725207  82.9319259  41.5102338  165.908614
     118.125  78.1585148  1.37298328  82.5334401  41.3107725  165.099709
     118.375  78.3714235  1.36871116  82.1365452  41.1121077  164.294167
     118.625  78.5848829  1.36443576  81.7412316  40.9142344  163.491968
     118.875  78.7988987  1.36015715  81.3474896  40.7171478  162.693089
     119.125  79.0134765  1.35587536  80.9553096  40.5208432  161.897511
     119.375   79.228622  1.35159046  80.5646823  40.3253158  161.105212
     119.625  79.4443412  1.34730249  80.1755982   40.130561  160.316171
     119.875  79.6606398  1.34301151  79.7880482  39.9365741  159.530369
     120.125  79.8775239  1.33871757  79.4020232  39.7433506  158.747785
     120.375  80.0949996  1.33442072   79.017514   39.550886  157.968399
     120.625  80.3130729  1.33012102  78.6345119  39.3591757  157.192192
     120.875  80.5317501  1.32581852   78.253008  39.1682154  156.419144
     121.125  80.7510374  1.32151327  77.8729935  38.9780008  155.649237
     121.375  80.9709414  1.31720534  77.4944599  38.7885274   154.88245
     121.625  81.1914683  1.31289478  77.1173986  38.5997911  154.118766
     121.875  81.4126247  1.30858164  76.7418013  38.4117877  153.358166
     122.125  81.6344173  1.30426598  76.3676597  38.2245128  152.600631
     122.375  81.8568528  1.29994786  75.9949654  38.0379626  151.846144
     122.625  82.0799379  1.29562734  75.6237104  37.8521328  151.094686
     122.875  82.3036795  1.29130448  75.2538867  37.6670196   150.34624
     123.125  82.5280847  1.28697933  74.8854863  37.4826188  149.600788
     123.375  82.7531604  1.28265195  74.5185015  37.2989266  148.858314
     123.625  82.9789139  1.27832241  74.1529245  37.1159392  148.118799
     123.875  83.2053523  1.27399077  73.7887476  36.9336526  147.382228
     124.125   83.432483  1.26965708  73.4259634  36.7520632  146.648584
     124.375  83.6603135  1.26532141  73.0645644  36.5711672  145.917849
     124.625  83.8888513  1.26098382  72.7045432  36.3909609  145.190009
     124.875   84.118104  1.25664437  72.3458926  36.2114408  144.465046
     125.125  84.3480793  1.25230314  71.9886055  36.0326031  143.742946
     125.375  84.5787852  1.24796017  71.6326748  35.8544445  143.023692
     125.625  84.8102295  1.24361555  71.2780936  35.6769614   142.30727
     125.875  85.0424202  1.23926932  70.9248549  35.5001503  141.593663
     126.125  85.2753656  1.23492157  70.5729521  35.3240079  140.882858
     126.375  85.5090739  1.23057235  70.2223783  35.1485309  140.174839
     126.625  85.7435535  1.22622174  69.8731271  34.9737159  139.469591
     126.875  85.9788128   1.2218698   69.525192  34.7995597  138.767101
     127.125  86.2148604   1.2175166  69.1785666  34.6260591  138.067355
     127.375  86.4517051  1.21316221  68.8332445  34.4532109  137.370337
     127.625  86.6893557   1.2088067  68.4892195   34.281012  136.676035
     127.875  86.9278212  1.20445015  68.1464856  34.1094595  135.984435
     128.125  87.1671105  1.20009262  67.8050368  33.9385502  135.295523
     128.375  87.4072329  1.19573419   67.464867  33.7682811  134.609287
     128.625  87.6481977  1.19137494  67.1259706  33.5986495  133.925714
     128.875  87.8900143  1.18701492  66.7883416  33.4296524   133.24479
     129.125  88.1326923  1.18265423  66.4519746  33.2612869  132.566503
     129.375  88.3762413  1.17829294  66.1168639  33.0935504  131.890841
     129.625  88.6206713  1.17393112  65.7830042    32.92644  131.217792
     129.875  88.8659922  1.16956885  65.4503899  32.7599531  130.547343
     130.125   89.112214   1.1652062   65.119016   32.594087  129.879484
     130.375  89.3593469  1.16084327  64.7888772  32.4288393  129.214202
     130.625  89.6074014  1.15648013  64.4599684  32.2642072  128.551486
     130.875   89.856388  1.15211686  64.1322847  32.1001884  127.891325
     131.125  90.1063172  1.14775354  63.8058211  31.9367804  127.233707
     131.375     90.3572  1.14339026   63.480573  31.7739808  126.578624
     131.625  90.6090471  1.13902709  63.1565356  31.6117873  125.926063
     131.875  90.8618698  1.13466413  62.8337042  31.4501975  125.276014
     132.125  91.1156792  1.13030146  62.5120745  31.2892091  124.628468
     132.375  91.3704868  1.12593917  62.1916421  31.1288201  123.983414
     132.625  91.6263041  1.12157734  61.8724025  30.9690282  123.340843
     132.875  91.8831428  1.11721607  61.5543516  30.8098314  122.700745
     133.125  92.1410148  1.11285544  61.2374854  30.6512275   122.06311
     133.375  92.3999321  1.10849554  60.9217997  30.4932146  121.427931
     133.625  92.6599069  1.10413648  60.6072907  30.3357907  120.795197
     133.875  92.9209515  1.09977833  60.2939546  30.1789539  120.164901
     134.125  93.1830785   1.0954212  59.9817877  30.0227024  119.537033
     134.375  93.4463006  1.09106518  59.6707863  29.8670343  118.911586
     134.625  93.7106307  1.08671037   59.360947  29.7119479  118.288551
     134.875  93.9760818  1.08235686  59.0522663  29.5574415   117.66792
     135.125  94.2426671  1.07800476   58.744741  29.4035134  117.049687
     135.375  94.5104001  1.07365416  58.4383678  29.2501621  116.433843
     135.625  94.7792943  1.06930517  58.1331436  29.0973859  115.820381
     135.875  95.0493635  1.06495789  57.8290655  28.9451834  115.209295
     136.125  95.3206217  1.06061243  57.5261306  28.7935531  114.600578
     136.375  95.5930831  1.05626888   57.224336  28.6424936  113.994222
     136.625   95.866762  1.05192736  56.9236792  28.4920037  113.390222
     136.875  96.1416728  1.04758798  56.6241575   28.342082  112.788572
     137.125  96.4178305  1.04325084  56.3257684  28.1927272  112.189266
     137.375  96.6952499  1.03891606  56.0285097  28.0439383  111.592298
     137.625  96.9739462  1.03458375  55.7323791   27.895714  110.997662
     137.875  97.2539347  1.03025401  55.4373745  27.7480533  110.405354
     138.125   97.535231  1.02592698  55.1434938  27.6009553  109.815369
     138.375  97.8178509  1.02160277  54.8507351  27.4544189  109.227702
     138.625  98.1018103  1.01728149  54.5590967  27.3084432  108.642347
     138.875  98.3871255  1.01296326  54.2685768  27.1630275  108.059302
     139.125  98.6738129  1.00864821   53.979174  27.0181709  107.478562
     139.375  98.9618891  1.00433646  53.6908866  26.8738727  106.900124
     139.625   99.251371  1.00002814  53.4037136  26.7301322  106.323983
     139.875  99.5422756 0.995723371  53.1176535  26.5869489  105.750137
     140.125  99.8346204 0.991422284  52.8327054  26.4443222  105.178582
     140.375  100.128423 0.987125008  52.5488683  26.3022516  104.609315
     140.625  100.423701 0.982831677  52.2661412  26.1607366  104.042335
     140.875  100.720472 0.978542425  51.9845236   26.019777  103.477639
     141.125  101.018755 0.974257388  51.7040148  25.8793724  102.915224
     141.375  101.318569 0.969976704  51.4246143  25.7395226   102.35509
     141.625  101.619931 0.965700513  51.1463219  25.6002274  101.797234
     141.875  101.922861 0.961428956  50.8691372  25.4614868  101.241655
     142.125  102.227379 0.957162178  50.5930602  25.3233006  100.688352
     142.375  102.533503 0.952900324   50.318091  25.1856689  100.137325
     142.625  102.841254 0.948643543  50.0442298  25.0485918  99.5885731
     142.875  103.150651 0.944391985  49.7714768  24.9120694  99.0420961
     143.125  103.461715 0.940145803  49.4998326  24.7761021  98.4978941
     143.375  103.774466  0.93590515  49.2292977    24.64069  97.9559677
     143.625  104.088925 0.931670183  48.9598728  24.5058335  97.4163173
     143.875  104.405114 0.927441062  48.6915589  24.3715332  96.8789441
     144.125  104.723052 0.923217948   48.424357  24.2377895  96.3438492
     144.375  105.042763 0.919001005  48.1582682  24.1046029  95.8110343
     144.625  105.364267 0.914790399  47.8932938  23.9719742  95.2805012
     144.875  105.687587 0.910586299  47.6294354  23.8399041   94.752252
     145.125  106.012746 0.906388875  47.3666945  23.7083933  94.2262893
     145.375  106.339766 0.902198302  47.1050729  23.5774428  93.7026157
     145.625  106.668669 0.898014755  46.8445725  23.4470536  93.1812343
     145.875  106.999479 0.893838414  46.5851954  23.3172266  92.6621487
     146.125   107.33222 0.889669459  46.3269439   23.187963  92.1453625
     146.375  107.666916 0.885508076  46.0698203   23.059264  91.6308797
     146.625  108.003589 0.881354452  45.8138272  22.9311309  91.1187047
     146.875  108.342266 0.877208775  45.5589673   22.803565  90.6088423
     147.125  108.682969  0.87307124  45.3052436  22.6765678  90.1012975
     147.375  109.025725 0.868942041  45.0526591  22.5501408  89.5960756
     147.625  109.370558 0.864821377  44.8012169  22.4242857  89.0931825
     147.875  109.717493  0.86070945  44.5509206  22.2990041  88.5926242
     148.125  110.066557 0.856606464  44.3017737  22.1742978  88.0944072
     148.375  110.417776 0.852512627    44.05378  22.0501688  87.5985382
     148.625  110.771175  0.84842815  43.8069434   21.926619  87.1050244
     148.875  111.126781 0.844353248  43.5612681  21.8036504  86.6138734
     149.125  111.484621 0.840288137  43.3167583  21.6812652   86.125093
     149.375  111.844722 0.836233039  43.0734186  21.5594658  85.6386916
     149.625  112.207111 0.832188177  42.8312536  21.4382543  85.1546778
     149.875  112.571817 0.828153779  42.5902683  21.3176333  84.6730607
     150.125  112.938866 0.824130077  42.3504676  21.1976053  84.1938498
     150.375  113.308287 0.820117304   42.111857  21.0781729  83.7170548
     150.625  113.680108   0.8161157  41.8744418  20.9593389   83.242686
     150.875  114.054358 0.812125505  41.6382278  20.8411062  82.7707541
     151.125  114.431066 0.808146965  41.4032208  20.7234776  82.3012702
     151.375  114.810261  0.80418033  41.1694269  20.6064563  81.8342457
     151.625  115.191972 0.800225853  40.9368525  20.4900453  81.3696926
     151.875  115.576229  0.79628379   40.705504   20.374248  80.9076231
     152.125  115.963061 0.792354403  40.4753882  20.2590677  80.4480502
     152.375  116.352499 0.788437957   40.246512  20.1445078  79.9909869
     152.625  116.744572  0.78453472  40.0188826  20.0305721  79.5364469
     152.875  117.139312 0.780644965  39.7925074  19.9172641  79.0844444
     153.125  117.536748  0.77676897  39.5673941  19.8045877  78.6349939
     153.375  117.936912 0.772907016  39.3435504  19.6925469  78.1881104
     153.625  118.339834 0.769059388  39.1209845  19.5811456  77.7438094
     153.875  118.745546 0.765226377  38.8997047  19.4703881  77.3021068
     154.125  119.154079 0.761408277  38.6797195  19.3602786  76.8630191
     154.375  119.565464 0.757605385  38.4610377  19.2508215  76.4265632
     154.625  119.979733 0.753818007  38.2436684  19.1420214  75.9927564
     154.875  120.396916 0.750046448  38.0276209  19.0338828  75.5616166
     155.125  120.817047 0.746291022  37.8129046  18.9264106  75.1331623
     155.375  121.240157 0.742552045  37.5995294  18.8196096  74.7074122
     155.625  121.666277 0.738829839  37.3875052  18.7134849  74.2843857
     155.875  122.095439  0.73512473  37.1768424  18.6080417  73.8641027
     156.125  122.527676 0.731437048  36.9675515  18.5032851  73.4465837
     156.375  122.963019 0.727767129  36.7596433  18.3992206  73.0318494
     156.625  123.401499 0.724115315  36.5531288  18.2958537  72.6199214
     156.875   123.84315 0.720481949  36.3480194  18.1931901  72.2108215
     157.125  124.288002 0.716867383  36.1443266  18.0912356  71.8045722
     157.375  124.736087 0.713271971  35.9420623  17.9899961  71.4011966
     157.625  125.187437 0.709696074  35.7412385  17.8894776  71.0007182
     157.875  125.642084 0.706140056  35.5418678  17.7896864   70.603161
     158.125  126.100057 0.702604288  35.3439626  17.6906288  70.2085496
     158.375  126.561389 0.699089145  35.1475359  17.5923113  69.8169093
     158.625   127.02611 0.695595007   34.952601  17.4947404  69.4282656
     158.875  127.494251 0.692122259  34.7591712  17.3979229  69.0426448
     159.125  127.965842 0.688671291  34.5672603  17.3018657  68.6600738
     159.375  128.440912 0.685242499  34.3768824  17.2065757  68.2805798
     159.625  128.919492 0.681836282  34.1880516  17.1120602  67.9041907
     159.875   129.40161 0.678453047  34.0007826  17.0183264  67.5309349
     160.125  129.887295 0.675093203  33.8150902  16.9253817  67.1608415
     160.375  130.376575 0.671757166  33.6309895  16.8332338  66.7939398
     160.625  130.869479 0.668445356  33.4484958  16.7418902    66.43026
     160.875  131.366032   0.6651582  33.2676248  16.6513588  66.0698327
     161.125  131.866262 0.661896127  33.0883925  16.5616476  65.7126891
     161.375  132.370194 0.658659572  32.9108149  16.4727647  65.3588607
     161.625  132.877853 0.655448975  32.7349087  16.3847183  65.0083798
     161.875  133.389264 0.652264782  32.5606903  16.2975169  64.6612792
     162.125   133.90445 0.649107442   32.388177  16.2111688  64.3175921
     162.375  134.423434  0.64597741  32.2173858  16.1256827  63.9773523
     162.625  134.946237 0.642875143  32.0483343  16.0410674  63.6405941
     162.875  135.472881 0.639801107  31.8810403  15.9573317  63.3073522
     163.125  136.003384 0.636755767  31.7155216  15.8744847  62.9776621
     163.375  136.537767 0.633739598  31.5517967  15.7925355  62.6515595
     163.625  137.076045 0.630753074  31.3898839  15.7114933  62.3290806
     163.875  137.618235 0.627796676  31.2298019  15.6313676  62.0102622
     164.125  138.164353 0.624870889  31.0715697  15.5521677  61.6951415
     164.375  138.714412   0.6219762  30.9152065  15.4739033  61.3837561
     164.625  139.268423 0.619113101  30.7607316   15.396584   61.076144
     164.875  139.826399 0.616282088  30.6081647  15.3202198  60.7723437
     165.125  140.388348 0.613483659  30.4575254  15.2448204  60.4723942
     165.375  140.954278 0.610718315  30.3088338  15.1703958  60.1763346
     165.625  141.524194 0.607986561    30.16211  15.0969563  59.8842046
     165.875  142.098101 0.605288904  30.0173744  15.0245119  59.5960443
     166.125  142.676002 0.602625853  29.8746474  14.9530728  59.3118937
     166.375  143.257897 0.599997921  29.7339498  14.8826495  59.0317937
     166.625  143.843784 0.597405621  29.5953022  14.8132523   58.755785
     166.875   144.43366 0.594849469  29.4587255  14.7448917  58.4839088
     167.125   145.02752 0.592329982  29.3242409  14.6775782  58.2162066
     167.375  145.625356 0.589847678  29.1918695  14.6113225  57.9527198
     167.625  146.227157 0.587403075  29.0616324   14.546135  57.6934904
     167.875  146.832913 0.584996694   28.933551  14.4820265  57.4385601
     168.125  147.442608 0.582629053  28.8076466  14.4190077  57.1879711
     168.375  148.056225 0.580300673  28.6839407  14.3570893  56.9417656
     168.625  148.673746 0.578012073  28.5624547   14.296282  56.6999857
     168.875  149.295148  0.57576377  28.4432099  14.2365966  56.4626737
     169.125  149.920406 0.573556282   28.326228  14.1780437  56.2298718
     169.375  150.549493 0.571390124  28.2115302  14.1206341  56.0016223
     169.625   151.18238 0.569265809  28.0991379  14.0643785  55.7779672
     169.875  151.819033 0.567183848  27.9890726  14.0092876  55.5589486
     170.125  152.459417 0.565144749  27.8813553   13.955372  55.3446083
     170.375  153.103494 0.563149017  27.7760073  13.9026423   55.134988
     170.625  153.751223 0.561197152  27.6730496   13.851109  54.9301292
     170.875  154.402558 0.559289652   27.572503  13.8007825  54.7300729
     171.125  155.057454 0.557427007  27.4743882  13.7516733  54.5348601
     171.375  155.715859 0.555609706  27.3787259  13.7037915  54.3445311
     171.625  156.377721 0.553838228  27.2855362  13.6571474  54.1591261
     171.875  157.042983  0.55211305  27.1948394   13.611751  53.9786848
     172.125  157.711586 0.550434638  27.1066552  13.5676123  53.8032461
     172.375  158.383467 0.548803455  27.0210032   13.524741  53.6328487
     172.625  159.058561 0.547219954  26.9379026  13.4831468  53.4675307
     172.875  159.736799  0.54568458  26.8573725  13.4428391  53.3073293
     173.125   160.41811 0.544197771  26.7794313  13.4038274  53.1522813
     173.375  161.102418 0.542759953  26.7040974  13.3661206  53.0024227
     173.625  161.789646 0.541371544  26.6313886  13.3297277  52.8577885
     173.875  162.479714 0.540032953  26.5613222  13.2946575  52.7184132
     174.125  163.172537 0.538744575  26.4939153  13.2609184  52.5843303
     174.375  163.868028 0.537506797  26.4291844  13.2285187  52.4555724
     174.625  164.566099 0.536319993  26.3671455  13.1974665   52.332171
     174.875  165.266657 0.535184524  26.3078141  13.1677694  52.2141569
     175.125  165.969606 0.534100739  26.2512052   13.139435  52.1015596
     175.375  166.674849 0.533068975  26.1973332  13.1124706  51.9944076
     175.625  167.382285 0.532089554  26.1462121   13.086883  51.8927282
     175.875  168.091811 0.531162783   26.097855  13.0626789  51.7965476
     176.125  168.803322 0.530288958  26.0522746  13.0398646  51.7058908
     176.375   169.51671 0.529468356   26.009483  13.0184461  51.6207816
     176.625  170.231866 0.528701241  25.9694914  12.9984292  51.5412422
     176.875  170.948676  0.52798786  25.9323106  12.9798192  51.4672939
     177.125  171.667027 0.527328446  25.8979506   12.962621  51.3989563
     177.375  172.386802 0.526723214  25.8664206  12.9468394  51.3362479
     177.625  173.107885 0.526172363  25.8377293  12.9324785  51.2791855
     177.875  173.830154 0.525676073  25.8118845  12.9195425  51.2277847
     178.125  174.553491 0.525234508  25.7888933  12.9080347  51.1820594
     178.375  175.277771 0.524847816   25.768762  12.8979584  51.1420221
     178.625  176.002873 0.524516126  25.7514961  12.8893164  51.1076839
     178.875   176.72867 0.524239547  25.7371006   12.882111  51.0790543
     179.125  177.455039 0.524018172  25.7255793  12.8763443   51.056141
     179.375  178.181853 0.523852076  25.7169356  12.8720178  51.0389505
     179.625  178.908984 0.523741314  25.7111717  12.8691328  51.0274875
     179.875  179.636307 0.523685924  25.7082894  12.8676902  51.0217552
